{
  "name": "Fycd-OpenShift-Sample-App",
  "version": "1.0.0",
  "description": "Fycd Application running on OpenShift",
  "keywords": [
    "OpenShift",
    "Node.js",
    "application",
    "openshift"
  ],
  "author": {
    "name": "OpenShift",
    "email": "ramr@example.org",
    "url": "http://www.openshift.com/"
  },
  "homepage": "http://www.openshift.com/",
  "repository": {
    "type": "git",
    "url": "https://github.com/openshift/origin-server"
  },
  "engines": {
    "node": ">= 0.6.0",
    "npm": ">= 1.0.0"
  },
  "dependencies": {
    "express": "~3.4.4",
    "nodemailer": "~0.6.0",
    "recaptcha": "~1.2.0",
    "re-captcha": "0.0.3",
    "monk": "~0.7.1",
    "crypto": "0.0.3"
  },
  "devDependencies": {},
  "bundleDependencies": [],
  "private": true,
  "main": "server.js"
}
